lab1/waveform.vcd
$version Generated by VerilatedVcd $end
$timescale 1s $end

 $scope module TOP $end
  $var wire  1 S clk $end
  $var wire 32 U r[0] [31:0] $end
  $var wire 32 _ r[10] [31:0] $end
  $var wire 32 ` r[11] [31:0] $end
  $var wire 32 a r[12] [31:0] $end
  $var wire 32 b r[13] [31:0] $end
  $var wire 32 c r[14] [31:0] $end
  $var wire 32 d r[15] [31:0] $end
  $var wire 32 e r[16] [31:0] $end
  $var wire 32 f r[17] [31:0] $end
  $var wire 32 g r[18] [31:0] $end
  $var wire 32 h r[19] [31:0] $end
  $var wire 32 V r[1] [31:0] $end
  $var wire 32 i r[20] [31:0] $end
  $var wire 32 j r[21] [31:0] $end
  $var wire 32 k r[22] [31:0] $end
  $var wire 32 l r[23] [31:0] $end
  $var wire 32 m r[24] [31:0] $end
  $var wire 32 n r[25] [31:0] $end
  $var wire 32 o r[26] [31:0] $end
  $var wire 32 p r[27] [31:0] $end
  $var wire 32 q r[28] [31:0] $end
  $var wire 32 r r[29] [31:0] $end
  $var wire 32 W r[2] [31:0] $end
  $var wire 32 s r[30] [31:0] $end
  $var wire 32 t r[31] [31:0] $end
  $var wire 32 X r[3] [31:0] $end
  $var wire 32 Y r[4] [31:0] $end
  $var wire 32 Z r[5] [31:0] $end
  $var wire 32 [ r[6] [31:0] $end
  $var wire 32 \ r[7] [31:0] $end
  $var wire 32 ] r[8] [31:0] $end
  $var wire 32 ^ r[9] [31:0] $end
  $var wire  1 T start $end
  $scope module SingleCycleCPU $end
   $var wire  4 ~ ALUCtl [3:0] $end
   $var wire  2 P ALUOp [1:0] $end
   $var wire 32 !! ALUOut [31:0] $end
   $var wire  1 N ALUSrc $end
   $var wire 32 } ALU_B [31:0] $end
   $var wire  1 J branch $end
   $var wire  1 S clk $end
   $var wire 32 y imm [31:0] $end
   $var wire 32 G inst [31:0] $end
   $var wire  1 K memRead $end
   $var wire  1 M memWrite $end
   $var wire  1 L memtoReg $end
   $var wire 32 u pc_curr [31:0] $end
   $var wire 32 $ pc_mult0 [31:0] $end
   $var wire 32 { pc_mult1 [31:0] $end
   $var wire 32 # pc_next [31:0] $end
   $var wire 32 U r[0] [31:0] $end
   $var wire 32 _ r[10] [31:0] $end
   $var wire 32 ` r[11] [31:0] $end
   $var wire 32 a r[12] [31:0] $end
   $var wire 32 b r[13] [31:0] $end
   $var wire 32 c r[14] [31:0] $end
   $var wire 32 d r[15] [31:0] $end
   $var wire 32 e r[16] [31:0] $end
   $var wire 32 f r[17] [31:0] $end
   $var wire 32 g r[18] [31:0] $end
   $var wire 32 h r[19] [31:0] $end
   $var wire 32 V r[1] [31:0] $end
   $var wire 32 i r[20] [31:0] $end
   $var wire 32 j r[21] [31:0] $end
   $var wire 32 k r[22] [31:0] $end
   $var wire 32 l r[23] [31:0] $end
   $var wire 32 m r[24] [31:0] $end
   $var wire 32 n r[25] [31:0] $end
   $var wire 32 o r[26] [31:0] $end
   $var wire 32 p r[27] [31:0] $end
   $var wire 32 q r[28] [31:0] $end
   $var wire 32 r r[29] [31:0] $end
   $var wire 32 W r[2] [31:0] $end
   $var wire 32 s r[30] [31:0] $end
   $var wire 32 t r[31] [31:0] $end
   $var wire 32 X r[3] [31:0] $end
   $var wire 32 Y r[4] [31:0] $end
   $var wire 32 Z r[5] [31:0] $end
   $var wire 32 [ r[6] [31:0] $end
   $var wire 32 \ r[7] [31:0] $end
   $var wire 32 ] r[8] [31:0] $end
   $var wire 32 ^ r[9] [31:0] $end
   $var wire 32 "! readData [31:0] $end
   $var wire 32 w readData1 [31:0] $end
   $var wire 32 x readData2 [31:0] $end
   $var wire  1 O regWrite $end
   $var wire 32 z sl1 [31:0] $end
   $var wire  1 T start $end
   $var wire 32 v writeData [31:0] $end
   $var wire  1 | zero $end
   $scope module m_ALU $end
    $var wire 32 w A [31:0] $end
    $var wire 32 !! ALUOut [31:0] $end
    $var wire  4 ~ ALUctl [3:0] $end
    $var wire 32 } B [31:0] $end
    $var wire  1 | zero $end
   $upscope $end
   $scope module m_ALUCtrl $end
    $var wire  4 ~ ALUCtl [3:0] $end
    $var wire  2 P ALUOp [1:0] $end
    $var wire  3 R funct3 [2:0] $end
    $var wire  1 Q funct7 $end
   $upscope $end
   $scope module m_Adder_1 $end
    $var wire 32 # a [31:0] $end
    $var wire 32 $! b [31:0] $end
    $var wire 32 $ sum [31:0] $end
   $upscope $end
   $scope module m_Adder_2 $end
    $var wire 32 # a [31:0] $end
    $var wire 32 z b [31:0] $end
    $var wire 32 { sum [31:0] $end
   $upscope $end
   $scope module m_Control $end
    $var wire  2 P ALUOp [1:0] $end
    $var wire  1 N ALUSrc $end
    $var wire  1 J branch $end
    $var wire  1 K memRead $end
    $var wire  1 M memWrite $end
    $var wire  1 L memtoReg $end
    $var wire  7 H opcode [6:0] $end
    $var wire  1 O regWrite $end
   $upscope $end
   $scope module m_DataMemory $end
    $var wire 32 !! address [31:0] $end
    $var wire  1 S clk $end
    $var wire  1 K memRead $end
    $var wire  1 M memWrite $end
    $var wire 32 "! readData [31:0] $end
    $var wire  1 T rst $end
    $var wire 32 x writeData [31:0] $end
   $upscope $end
   $scope module m_ImmGen $end
    $var wire 32 y imm [31:0] $end
    $var wire 32 G inst [31:0] $end
    $var wire  7 H opcode [6:0] $end
   $upscope $end
   $scope module m_InstMem $end
    $var wire 32 G inst [31:0] $end
    $var wire 32 # readAddr [31:0] $end
   $upscope $end
   $scope module m_Mux_ALU $end
    $var wire 32 } out [31:0] $end
    $var wire 32 x s0 [31:0] $end
    $var wire 32 y s1 [31:0] $end
    $var wire  1 N sel $end
    $var wire 32 %! size [31:0] $end
   $upscope $end
   $scope module m_Mux_PC $end
    $var wire 32 u out [31:0] $end
    $var wire 32 $ s0 [31:0] $end
    $var wire 32 { s1 [31:0] $end
    $var wire  1 #! sel $end
    $var wire 32 %! size [31:0] $end
   $upscope $end
   $scope module m_Mux_WriteData $end
    $var wire 32 v out [31:0] $end
    $var wire 32 !! s0 [31:0] $end
    $var wire 32 "! s1 [31:0] $end
    $var wire  1 L sel $end
    $var wire 32 %! size [31:0] $end
   $upscope $end
   $scope module m_PC $end
    $var wire  1 S clk $end
    $var wire 32 u pc_i [31:0] $end
    $var wire 32 # pc_o [31:0] $end
    $var wire  1 T rst $end
   $upscope $end
   $scope module m_Register $end
    $var wire  1 S clk $end
    $var wire 32 w readData1 [31:0] $end
    $var wire 32 x readData2 [31:0] $end
    $var wire  5 % readReg1 [4:0] $end
    $var wire  5 & readReg2 [4:0] $end
    $var wire  1 O regWrite $end
    $var wire 32 ' regs[0] [31:0] $end
    $var wire 32 1 regs[10] [31:0] $end
    $var wire 32 2 regs[11] [31:0] $end
    $var wire 32 3 regs[12] [31:0] $end
    $var wire 32 4 regs[13] [31:0] $end
    $var wire 32 5 regs[14] [31:0] $end
    $var wire 32 6 regs[15] [31:0] $end
    $var wire 32 7 regs[16] [31:0] $end
    $var wire 32 8 regs[17] [31:0] $end
    $var wire 32 9 regs[18] [31:0] $end
    $var wire 32 : regs[19] [31:0] $end
    $var wire 32 ( regs[1] [31:0] $end
    $var wire 32 ; regs[20] [31:0] $end
    $var wire 32 < regs[21] [31:0] $end
    $var wire 32 = regs[22] [31:0] $end
    $var wire 32 > regs[23] [31:0] $end
    $var wire 32 ? regs[24] [31:0] $end
    $var wire 32 @ regs[25] [31:0] $end
    $var wire 32 A regs[26] [31:0] $end
    $var wire 32 B regs[27] [31:0] $end
    $var wire 32 C regs[28] [31:0] $end
    $var wire 32 D regs[29] [31:0] $end
    $var wire 32 ) regs[2] [31:0] $end
    $var wire 32 E regs[30] [31:0] $end
    $var wire 32 F regs[31] [31:0] $end
    $var wire 32 * regs[3] [31:0] $end
    $var wire 32 + regs[4] [31:0] $end
    $var wire 32 , regs[5] [31:0] $end
    $var wire 32 - regs[6] [31:0] $end
    $var wire 32 . regs[7] [31:0] $end
    $var wire 32 / regs[8] [31:0] $end
    $var wire 32 0 regs[9] [31:0] $end
    $var wire  1 T rst $end
    $var wire 32 v writeData [31:0] $end
    $var wire  5 I writeReg [4:0] $end
   $upscope $end
   $scope module m_ShiftLeftOne $end
    $var wire 32 y i [31:0] $end
    $var wire 32 z o [31:0] $end
   $upscope $end
  $upscope $end
 $upscope $end
$enddefinitions $end


#0
b00000000000000000000000000000000 #
b00000000000000000000000000000100 $
b00000 %
b00011 &
b00000000000000000000000000000000 '
b00000000000000000000000000000000 (
b00000000000000000000000000000000 )
b00000000000000000000000000000000 *
b00000000000000000000000000000000 +
b00000000000000000000000000000000 ,
b00000000000000000000000000000000 -
b00000000000000000000000000000000 .
b00000000000000000000000000000000 /
b00000000000000000000000000000000 0
b00000000000000000000000000000000 1
b00000000000000000000000000000000 2
b00000000000000000000000000000000 3
b00000000000000000000000000000000 4
b00000000000000000000000000000000 5
b00000000000000000000000000000000 6
b00000000000000000000000000000000 7
b00000000000000000000000000000000 8
b00000000000000000000000000000000 9
b00000000000000000000000000000000 :
b00000000000000000000000000000000 ;
b00000000000000000000000000000000 <
b00000000000000000000000000000000 =
b00000000000000000000000000000000 >
b00000000000000000000000000000000 ?
b00000000000000000000000000000000 @
b00000000000000000000000000000000 A
b00000000000000000000000000000000 B
b00000000000000000000000000000000 C
b00000000000000000000000000000000 D
b00000000000000000000000000000000 E
b00000000000000000000000000000000 F
b00001010001100000000010000010011 G
b0010011 H
b01000 I
0J
0K
0L
0M
0N
0O
b00 P
0Q
b000 R
0S
1T
b00000000000000000000000000000000 U
b00000000000000000000000000000000 V
b00000000000000000000000000000000 W
b00000000000000000000000000000000 X
b00000000000000000000000000000000 Y
b00000000000000000000000000000000 Z
b00000000000000000000000000000000 [
b00000000000000000000000000000000 \
b00000000000000000000000000000000 ]
b00000000000000000000000000000000 ^
b00000000000000000000000000000000 _
b00000000000000000000000000000000 `
b00000000000000000000000000000000 a
b00000000000000000000000000000000 b
b00000000000000000000000000000000 c
b00000000000000000000000000000000 d
b00000000000000000000000000000000 e
b00000000000000000000000000000000 f
b00000000000000000000000000000000 g
b00000000000000000000000000000000 h
b00000000000000000000000000000000 i
b00000000000000000000000000000000 j
b00000000000000000000000000000000 k
b00000000000000000000000000000000 l
b00000000000000000000000000000000 m
b00000000000000000000000000000000 n
b00000000000000000000000000000000 o
b00000000000000000000000000000000 p
b00000000000000000000000000000000 q
b00000000000000000000000000000000 r
b00000000000000000000000000000000 s
b00000000000000000000000000000000 t
b00000000000000000000000000000100 u
b00000000000000000000000000000000 v
b00000000000000000000000000000000 w
b00000000000000000000000000000000 x
b00000000000000000000000010100011 y
b00000000000000000000000101000110 z
b00000000000000000000000101000110 {
1|
b00000000000000000000000000000000 }
b0010 ~
b00000000000000000000000000000000 !!
b00000000000000000000000000000000 "!
0#!
b00000000000000000000000000000100 $!
b00000000000000000000000000100000 %!
#1
b00000000000000000000000010000000 )
1S
0T
b00000000000000000000000010000000 W
#2
0S
1T
#3
b00000000000000000000000000000100 #
b00000000000000000000000000001000 $
b00010 %
b11100 &
b11111111110000010000000100010011 G
b00010 I
1Q
1S
b00000000000000000000000000001000 u
b00000000000000000000000010000000 v
b00000000000000000000000010000000 w
b11111111111111111111111111111100 y
b11111111111111111111111111111000 z
b11111111111111111111111111111100 {
0|
b00000000000000000000000010000000 !!
#4
0S
#5
b00000000000000000000000000001000 #
b00000000000000000000000000001100 $
b01000 &
b00000000100000010010000000100011 G
b0100011 H
b00000 I
1M
1N
0Q
b010 R
1S
b00000000000000000000000000001100 u
b00000000000000000000000000000000 y
b00000000000000000000000000000000 z
b00000000000000000000000000001000 {
#6
0S
#7
b00000000000000000000000000001100 #
b00000000000000000000000000010000 $
b00000 %
b00000 &
b00000000000000000000010000110011 G
b0110011 H
b01000 I
0M
0N
1O
b10 P
b000 R
1S
b00000000000000000000000000010000 u
b00000000000000000000000000000000 v
b00000000000000000000000000000000 w
b00000000000000000000000000001100 {
1|
b00000000000000000000000000000000 !!
#8
0S
#9
b00000000000000000000000000010000 #
b00000000000000000000000000010100 $
b00000000000000000000001010010011 G
b0010011 H
b00101 I
0O
b00 P
1S
b00000000000000000000000000010100 u
b00000000000000000000000000010000 {
#10
0S
#11
b00000000000000000000000000010100 #
b00000000000000000000000000011000 $
b00101 %
b00111 &
b00000000011100101010001100010011 G
b00110 I
b010 R
1S
b00000000000000000000000000011000 u
b00000000000000000000000000000111 y
b00000000000000000000000000001110 z
b00000000000000000000000000100010 {
#12
0S
#13
b00000000000000000000000000011000 #
b00000000000000000000000000011100 $
b00110 %
b00000 &
b00000000000000110000011001100011 G
b1100011 H
b01100 I
1J
b000 R
1S
b00000000000000000000000000100100 u
b00000000000000000000000000000110 y
b00000000000000000000000000001100 z
b00000000000000000000000000100100 {
1#!
#14
0S
#15
b00000000000000000000000000100100 #
b00000000000000000000000000101000 $
b01010 &
b00000000101000110110001100010011 G
b0010011 H
b00110 I
0J
b110 R
1S
b00000000000000000000000000101000 u
b00000000000000000000000000001010 y
b00000000000000000000000000010100 z
b00000000000000000000000000111000 {
0#!
#16
0S
#17
b00000000000000000000000000101000 #
b00000000000000000000000000101100 $
b00010 %
b00000 &
b00000000000000010010010000000011 G
b0000011 H
b01000 I
1K
1L
1N
1O
b010 R
1S
b00000000000000000000000000101100 u
b00000000000000000000000010000000 w
b00000000000000000000000000000000 y
b00000000000000000000000000000000 z
b00000000000000000000000000101000 {
0|
b00000000000000000000000010000000 !!
#18
0S
#19
b00000000000000000000000000101100 #
b00000000000000000000000000110000 $
b00100 &
b00000000010000010000000100010011 G
b0010011 H
b00010 I
0K
0L
0N
0O
b000 R
1S
b00000000000000000000000000110000 u
b00000000000000000000000010000000 v
b00000000000000000000000000000100 y
b00000000000000000000000000001000 z
b00000000000000000000000000110100 {
#20
0S
#21
b00000000000000000000000000110000 #
b00000000000000000000000000110100 $
b00000 %
b00000 &
b00000000000000000000000000000000 G
b0000000 H
b00000 I
1S
b00000000000000000000000000110100 u
b00000000000000000000000000000000 v
b00000000000000000000000000000000 w
b00000000000000000000000000000000 y
b00000000000000000000000000000000 z
b00000000000000000000000000110000 {
1|
b00000000000000000000000000000000 !!
#22
0S
#23
b00000000000000000000000000110100 #
b00000000000000000000000000111000 $
1S
b00000000000000000000000000111000 u
b00000000000000000000000000110100 {
#24
0S
#25
b00000000000000000000000000111000 #
b00000000000000000000000000111100 $
1S
b00000000000000000000000000111100 u
b00000000000000000000000000111000 {
#26
0S
#27
b00000000000000000000000000111100 #
b00000000000000000000000001000000 $
1S
b00000000000000000000000001000000 u
b00000000000000000000000000111100 {
#28
0S
#29
b00000000000000000000000001000000 #
b00000000000000000000000001000100 $
1S
b00000000000000000000000001000100 u
b00000000000000000000000001000000 {
#30
0S
#31
b00000000000000000000000001000100 #
b00000000000000000000000001001000 $
1S
b00000000000000000000000001001000 u
b00000000000000000000000001000100 {
#32
0S
#33
b00000000000000000000000001001000 #
b00000000000000000000000001001100 $
1S
b00000000000000000000000001001100 u
b00000000000000000000000001001000 {
#34
0S
#35
b00000000000000000000000001001100 #
b00000000000000000000000001010000 $
1S
b00000000000000000000000001010000 u
b00000000000000000000000001001100 {
#36
0S
#37
b00000000000000000000000001010000 #
b00000000000000000000000001010100 $
1S
b00000000000000000000000001010100 u
b00000000000000000000000001010000 {
#38
0S
#39
b00000000000000000000000001010100 #
b00000000000000000000000001011000 $
1S
b00000000000000000000000001011000 u
b00000000000000000000000001010100 {
#40
0S
#41
b00000000000000000000000001011000 #
b00000000000000000000000001011100 $
1S
b00000000000000000000000001011100 u
b00000000000000000000000001011000 {
#42
0S
#43
b00000000000000000000000001011100 #
b00000000000000000000000001100000 $
1S
b00000000000000000000000001100000 u
b00000000000000000000000001011100 {
#44
0S
#45
b00000000000000000000000001100000 #
b00000000000000000000000001100100 $
1S
b00000000000000000000000001100100 u
b00000000000000000000000001100000 {
#46
0S
#47
b00000000000000000000000001100100 #
b00000000000000000000000001101000 $
1S
b00000000000000000000000001101000 u
b00000000000000000000000001100100 {
#48
0S
#49
b00000000000000000000000001101000 #
b00000000000000000000000001101100 $
1S
b00000000000000000000000001101100 u
b00000000000000000000000001101000 {
#50
0S
#51
b00000000000000000000000001101100 #
b00000000000000000000000001110000 $
1S
b00000000000000000000000001110000 u
b00000000000000000000000001101100 {
#52
0S
#53
b00000000000000000000000001110000 #
b00000000000000000000000001110100 $
1S
b00000000000000000000000001110100 u
b00000000000000000000000001110000 {
#54
0S
#55
b00000000000000000000000001110100 #
b00000000000000000000000001111000 $
1S
b00000000000000000000000001111000 u
b00000000000000000000000001110100 {
#56
0S
#57
b00000000000000000000000001111000 #
b00000000000000000000000001111100 $
1S
b00000000000000000000000001111100 u
b00000000000000000000000001111000 {
#58
0S
#59
b00000000000000000000000001111100 #
b00000000000000000000000010000000 $
1S
b00000000000000000000000010000000 u
b00000000000000000000000001111100 {
#60
0S
#61
b00000000000000000000000010000000 #
b00000000000000000000000010000100 $
1S
b00000000000000000000000010000100 u
b00000000000000000000000010000000 {
#62
0S
#63
b00000000000000000000000010000100 #
b00000000000000000000000010001000 $
1S
b00000000000000000000000010001000 u
b00000000000000000000000010000100 {
#64
0S
#65
b00000000000000000000000010001000 #
b00000000000000000000000010001100 $
1S
b00000000000000000000000010001100 u
b00000000000000000000000010001000 {
#66
0S
#67
b00000000000000000000000010001100 #
b00000000000000000000000010010000 $
1S
b00000000000000000000000010010000 u
b00000000000000000000000010001100 {
#68
0S
#69
b00000000000000000000000010010000 #
b00000000000000000000000010010100 $
1S
b00000000000000000000000010010100 u
b00000000000000000000000010010000 {
#70
0S
#71
b00000000000000000000000010010100 #
b00000000000000000000000010011000 $
1S
b00000000000000000000000010011000 u
b00000000000000000000000010010100 {
#72
0S
#73
b00000000000000000000000010011000 #
b00000000000000000000000010011100 $
1S
b00000000000000000000000010011100 u
b00000000000000000000000010011000 {
#74
0S
#75
b00000000000000000000000010011100 #
b00000000000000000000000010100000 $
1S
b00000000000000000000000010100000 u
b00000000000000000000000010011100 {
#76
0S
#77
b00000000000000000000000010100000 #
b00000000000000000000000010100100 $
1S
b00000000000000000000000010100100 u
b00000000000000000000000010100000 {
#78
0S
#79
b00000000000000000000000010100100 #
b00000000000000000000000010101000 $
1S
b00000000000000000000000010101000 u
b00000000000000000000000010100100 {
#80
0S
#81
b00000000000000000000000010101000 #
b00000000000000000000000010101100 $
1S
b00000000000000000000000010101100 u
b00000000000000000000000010101000 {
#82
0S
#83
b00000000000000000000000010101100 #
b00000000000000000000000010110000 $
1S
b00000000000000000000000010110000 u
b00000000000000000000000010101100 {
#84
0S
#85
b00000000000000000000000010110000 #
b00000000000000000000000010110100 $
1S
b00000000000000000000000010110100 u
b00000000000000000000000010110000 {
#86
0S
#87
b00000000000000000000000010110100 #
b00000000000000000000000010111000 $
1S
b00000000000000000000000010111000 u
b00000000000000000000000010110100 {
#88
0S
#89
b00000000000000000000000010111000 #
b00000000000000000000000010111100 $
1S
b00000000000000000000000010111100 u
b00000000000000000000000010111000 {
#90
0S
#91
b00000000000000000000000010111100 #
b00000000000000000000000011000000 $
1S
b00000000000000000000000011000000 u
b00000000000000000000000010111100 {
#92
0S
#93
b00000000000000000000000011000000 #
b00000000000000000000000011000100 $
1S
b00000000000000000000000011000100 u
b00000000000000000000000011000000 {
#94
0S
#95
b00000000000000000000000011000100 #
b00000000000000000000000011001000 $
1S
b00000000000000000000000011001000 u
b00000000000000000000000011000100 {
#96
0S
#97
b00000000000000000000000011001000 #
b00000000000000000000000011001100 $
1S
b00000000000000000000000011001100 u
b00000000000000000000000011001000 {
#98
0S
#99
b00000000000000000000000011001100 #
b00000000000000000000000011010000 $
1S
b00000000000000000000000011010000 u
b00000000000000000000000011001100 {
#100
0S
#101
b00000000000000000000000011010000 #
b00000000000000000000000011010100 $
1S
b00000000000000000000000011010100 u
b00000000000000000000000011010000 {
#102
0S
#103
b00000000000000000000000011010100 #
b00000000000000000000000011011000 $
1S
b00000000000000000000000011011000 u
b00000000000000000000000011010100 {
